{
    "package": "th.ac.ku.sci.cs.android.sutee.demolistview",
    "prefix": "Dot",
    "database": "dot.db",
    "tables": ["dot"],
    "dot": {
        "columns": [
            {
                "name": "coord_x",
                "type": "integer"
            },
            {
                "name": "coord_y",
                "type": "integer"
            }
        ]
    }
}